co\com\sofka\delivery\tienda\values\ProductoId.class
co\com\sofka\delivery\tienda\events\PrecioProductoActualizado.class
co\com\sofka\delivery\cuenta\events\RappiPrimeActualizadoAPlanBasico.class
co\com\sofka\delivery\genericvalues\Precio.class
co\com\sofka\delivery\orden\events\LlevandoOrden.class
